…
ℹ Specify the column types or set `show_col_types = FALSE` to quiet this message.
> amazon_training$ACTION <- as.factor(amazon_training$ACTION)
> 
> # Set up a recipe
> my_recipe <- recipe(ACTION~., data=amazon_training) %>%
+   step_mutate_at(all_numeric_predictors(), fn = factor) %>% # turn all numeric features into factors
+   step_other(all_nominal_predictors(), threshold = .001) %>% # combines categorical values that occur <5% into an "other" value
+   step_lencode_mixed(all_nominal_predictors(), outcome = vars(ACTION)) %>% #target encoding: factors -> numeric
+   step_normalize(all_predictors()) %>%
+   step_smote(all_outcomes(), neighbors=3)
> 
> # apply the recipe to your data
> prep <- prep(my_recipe)
> bake(prep, new_data=amazon_training)
# A tibble: 32,769 × 10
   RESOURCE MGR_ID ROLE_ROLLUP_1 ROLE_ROLLUP_2 ROLE_DEPTNAME ROLE_TITLE
      <dbl>  <dbl>         <dbl>         <dbl>         <dbl>      <dbl>
 1    0.337 -2.96         -0.150        -0.325      -0.101       -0.616
 2    0.337  0.295        -0.150        -1.03        1.10        -0.431
 3    0.337  0.295         1.06          0.890       0.717        1.31 
 4    0.337 -3.03         -0.150        -1.03       -1.34         0.782
 5    0.337  0.295         0.647         1.70        2.11         1.38 
 6    0.337  0.295         0.523         0.495       1.17         0.669
 7   -0.202  0.295        -0.150        -1.03        0.836        0.568
 8    0.337  0.295        -0.150         0.714      -0.208        0.343
 9    0.337  0.295        -0.150        -0.726      -0.00603      0.881
10    0.337  0.295         3.52          2.78        0.460        1.31 
# ℹ 32,759 more rows
# ℹ 4 more variables: ROLE_FAMILY_DESC <dbl>, ROLE_FAMILY <dbl>,
#   ROLE_CODE <dbl>, ACTION <fct>
> bake(prep, new_data=amazon_test)
# A tibble: 58,921 × 9
   RESOURCE MGR_ID ROLE_ROLLUP_1 ROLE_ROLLUP_2 ROLE_DEPTNAME ROLE_TITLE
      <dbl>  <dbl>         <dbl>         <dbl>         <dbl>      <dbl>
 1    0.337  0.295         3.52         2.78           0.460      1.31 
 2    0.337  0.295        -0.150       -0.248          0.295     -1.69 
 3    0.337 -2.92         -0.150       -0.325         -1.08       0.188
 4    0.337  1.26         -0.150       -0.370         -0.879      0.854
 5    0.187  0.295        -0.150       -1.03          -0.806     -2.19 
 6    0.887 -2.93         -0.150       -0.0574        -1.14      -1.71 
 7   -1.74   0.295        -0.150       -1.03           0.836     -0.735
 8   -3.77   0.295        -0.150       -0.325         -0.174     -1.67 
 9    2.67   0.295        -0.887        0.295          1.75       0.867
10    0.337  0.295        -0.150       -0.914         -1.38       0.782
# ℹ 58,911 more rows
# ℹ 3 more variables: ROLE_FAMILY_DESC <dbl>, ROLE_FAMILY <dbl>,
#   ROLE_CODE <dbl>
…
