…
> ggplot(df_counts_20, aes(x = Count.Var1, y = Count.Freq)) +
+   geom_bar(stat = "identity", fill = "skyblue") +
+   coord_flip() +
+   scale_x_discrete(limits = rev(factor(df_counts_20$Value)))
> 
> # create a recipe, prep and bake
> 
> my_recipe <- recipe(ACTION~., data=amazon_training) %>%
+ step_mutate_at(all_numeric_predictors(), fn = factor) %>% # turn all numeric features into factors
+   step_other(all_nominal_predictors(), threshold = .001) %>% # combines categorical values that occur <5% into an "other" value
+   step_lencode_mixed(all_nominal_predictors(), outcome = vars(ACTION))
> 
> prep <- prep(my_recipe)
> bake(prep, new_data=amazon_training)
# A tibble: 32,769 × 10
   RESOURCE MGR_ID ROLE_ROLLUP_1 ROLE_ROLLUP_2 ROLE_DEPTNAME ROLE_TITLE
      <dbl>  <dbl>         <dbl>         <dbl>         <dbl>      <dbl>
 1    -2.72  -5.33         -2.93         -3.08         -3.18      -3.40
 2    -2.72  -2.76         -2.93         -3.43         -2.19      -3.27
 3    -2.72  -2.76         -2.46         -2.47         -2.50      -2.10
 4    -2.72  -5.39         -2.93         -3.43         -4.19      -2.45
 5    -2.72  -2.76         -2.62         -2.07         -1.36      -2.05
 6    -2.72  -2.76         -2.67         -2.67         -2.13      -2.53
 7    -3.03  -2.76         -2.93         -3.43         -2.41      -2.60
 8    -2.72  -2.76         -2.93         -2.56         -3.26      -2.75
 9    -2.72  -2.76         -2.93         -3.28         -3.10      -2.38
10    -2.72  -2.76         -1.51         -1.53         -2.72      -2.10
# ℹ 32,759 more rows
# ℹ 4 more variables: ROLE_FAMILY_DESC <dbl>, ROLE_FAMILY <dbl>,
#   ROLE_CODE <dbl>, ACTION <fct>
> bake(prep, new_data=amazon_test)
# A tibble: 58,921 × 9
   RESOURCE MGR_ID ROLE_ROLLUP_1 ROLE_ROLLUP_2 ROLE_DEPTNAME ROLE_TITLE
      <dbl>  <dbl>         <dbl>         <dbl>         <dbl>      <dbl>
 1    -2.72  -2.76         -1.51         -1.53         -2.72      -2.10
 2    -2.72  -2.76         -2.93         -3.04         -2.85      -4.13
 3    -2.72  -5.30         -2.93         -3.08         -3.98      -2.85
 4    -2.72  -2.00         -2.93         -3.10         -3.81      -2.40
 5    -2.81  -2.76         -2.93         -3.43         -3.75      -4.46
 6    -2.41  -5.31         -2.93         -2.95         -4.03      -4.14
 7    -3.90  -2.76         -2.93         -3.43         -2.41      -3.48
 8    -5.05  -2.76         -2.93         -3.08         -3.24      -4.11
 9    -1.40  -2.76         -3.21         -2.77         -1.66      -2.39
10    -2.72  -2.76         -2.93         -3.37         -4.22      -2.45
# ℹ 58,911 more rows
# ℹ 3 more variables: ROLE_FAMILY_DESC <dbl>, ROLE_FAMILY <dbl>,
#   ROLE_CODE <dbl>
…
